{
  "name": "app-name",
  "version": "0.0.1",
  "dependencies": {
    "bootstrap-sass": "^3.3.7",
    "fancybox": "^2.1.5",
    "flexslider-destroy": "*"
  },
  "private": true,
  "ignore": [
    "**/.*",
    "node_modules",
    "bower_components",
    "test",
    "tests"
  ]
}
